<?xml version="1.0" encoding="UTF-8" standalone="no"?>
<svg
   xmlns:dc="http://purl.org/dc/elements/1.1/"
   xmlns:cc="http://creativecommons.org/ns#"
   xmlns:rdf="http://www.w3.org/1999/02/22-rdf-syntax-ns#"
   xmlns:svg="http://www.w3.org/2000/svg"
   xmlns="http://www.w3.org/2000/svg"
   xmlns:sodipodi="http://sodipodi.sourceforge.net/DTD/sodipodi-0.dtd"
   xmlns:inkscape="http://www.inkscape.org/namespaces/inkscape"
   height="40"
   version="1.1"
   viewBox="0 0 50 40"
   width="50"
   id="svg4152"
   inkscape:version="0.91 r13725"
   sodipodi:docname="gmail.svg">
  <metadata
     id="metadata4166">
    <rdf:RDF>
      <cc:Work
         rdf:about="">
        <dc:format>image/svg+xml</dc:format>
        <dc:type
           rdf:resource="http://purl.org/dc/dcmitype/StillImage" />
        <dc:title />
      </cc:Work>
    </rdf:RDF>
  </metadata>
  <sodipodi:namedview
     pagecolor="#ffffff"
     bordercolor="#666666"
     borderopacity="1"
     objecttolerance="10"
     gridtolerance="10"
     guidetolerance="10"
     inkscape:pageopacity="0"
     inkscape:pageshadow="2"
     inkscape:window-width="1024"
     inkscape:window-height="705"
     id="namedview4164"
     showgrid="false"
     inkscape:zoom="5.2149125"
     inkscape:cx="-15.76515"
     inkscape:cy="34.942852"
     inkscape:window-x="-8"
     inkscape:window-y="-8"
     inkscape:window-maximized="1"
     inkscape:current-layer="svg4152"
     fit-margin-top="0"
     fit-margin-left="0"
     fit-margin-right="0"
     fit-margin-bottom="0" />
  <desc
     id="desc4156" />
  <defs
     id="defs4158" />
  <g
     style="fill:#d8e000;fill-rule:evenodd;stroke:none;stroke-width:1;fill-opacity:1"
     transform="matrix(2.5,0,0,2.5,0,-212.5)"
     id="Icons-Communication">
    <g
       transform="translate(0,85)"
       id="gmail"
       style="fill:#d8e000;fill-opacity:1">
      <path
         inkscape:connector-curvature="0"
         id="Shape"
         d="M 18,0 2,0 C 0.9,0 0,0.9 0,2 l 0,12 c 0,1.1 0.9,2 2,2 l 16,0 c 1.1,0 2,-0.9 2,-2 L 20,2 C 20,0.9 19.1,0 18,0 l 0,0 z M 18,14 16,14 16,5.2 10,9 4,5.2 4,14 2,14 2,2 3.2,2 10,6.2 16.8,2 18,2 l 0,12 0,0 z"
         style="fill:#d8e000;fill-opacity:1" />
    </g>
  </g>
</svg>
